Final Project Rough Draft
…
Users by Social Media Platform

This data shows the user populations of various social media platforms

sm_user_raw <- as.tibble(read.csv(file = "Data/users-by-social-media-platform.csv"))
sm_user <- sm_user_raw %>% rename(Monthly_Users = Monthly.active.users..Statista.and.TNW..2019....MAU.) %>% filter(Entity == "Facebook"| Entity == "Instagram"|Entity == "Reddit"|Entity == "YouTube")
sm_user

## # A tibble: 41 x 4
##    Entity   Code   Year Monthly_Users
##    <fct>    <lgl> <int>         <dbl>
##  1 Facebook NA     2008     100000000
##  2 Facebook NA     2009     276000000
##  3 Facebook NA     2010     517750000
##  4 Facebook NA     2011     766000000
##  5 Facebook NA     2012     979750000
##  6 Facebook NA     2013    1170500000
##  7 Facebook NA     2014    1334000000
##  8 Facebook NA     2015    1516750000
##  9 Facebook NA     2016    1753500000
## 10 Facebook NA     2017    2035750000
## # ... with 31 more rows
…
ALO

Data Analysis

World Data

Create DF with World Data (wld_data)

Using the data we just gathered and discussed, we must first show the trends of the data as a whole, using World data to determine how the countries we explore compare to the global average. First we consolidate the disparate dataframes into one wld_data Dataframe.

wld_data <- full_join(wld_pop,net_users_wld,by = "Year") %>% left_join(mobile_use_wld, by = "Year") %>% left_join(net_per_wld, by = "Year") %>% left_join(GDP_wld, by = "Year") %>% select(Entity = Country.Name.y, Year, pop, Num_Net_Users, Mobile_Per_100, Percent_Internet, GDP) %>% mutate(mobile_pop = (Mobile_Per_100*.01)*pop) %>% mutate(GDP_Capita = GDP/pop)
wld_data

## # A tibble: 27 x 9
##    Entity  Year    pop Num_Net_Users Mobile_Per_100 Percent_Internet     GDP
##    <fct>  <int>  <dbl>         <dbl>          <dbl>            <dbl>   <dbl>
##  1 World   1990 5.28e9       2630452          0.211           0.0493 2.26e13
##  2 World   1991 5.37e9            NA          0.302          NA      2.39e13
##  3 World   1992 5.46e9            NA          0.427          NA      2.54e13
##  4 World   1993 5.54e9      14073444          0.618           0.252  2.59e13
##  5 World   1994 5.62e9      25348069          0.989           0.447  2.78e13
##  6 World   1995 5.71e9      44714405          1.58            0.777  3.09e13
##  7 World   1996 5.79e9      77323781          2.50            1.33   3.16e13
##  8 World   1997 5.88e9     120719713          3.65            2.04   3.14e13
##  9 World   1998 5.96e9     188144724          5.33            3.14   3.13e13
## 10 World   1999 6.04e9     281428387          8.12            4.64   3.25e13
## # ... with 17 more rows, and 2 more variables: mobile_pop <dbl>,
## #   GDP_Capita <dbl>
…
## # A tibble: 6 x 9
##   Entity  Year    pop Num_Net_Users Mobile_Per_100 Percent_Internet     GDP
##   <chr>  <int>  <dbl>         <dbl>          <dbl>            <dbl>   <dbl>
## 1 Germa~  1990 7.94e7         99604          0.345            0.126 1.76e12
## 2 Germa~  1991 8.00e7        199129          0.669            0.250 1.86e12
## 3 Germa~  1992 8.06e7        348429          1.21             0.435 2.12e12
## 4 Germa~  1993 8.12e7        373319          2.20             0.464 2.07e12
## 5 Germa~  1994 8.14e7        746622          3.08             0.923 2.21e12
## 6 Germa~  1995 8.17e7       1492989          4.59             1.84  2.59e12
## # ... with 2 more variables: ALO <dbl>, mobile_pop <dbl>

WFD_data <- bind_rows(wld_data,FR_data,DE_data) %>% mutate(GDP_Capita = GDP/pop)
WFD_data 

## # A tibble: 81 x 10
##    Entity  Year    pop Num_Net_Users Mobile_Per_100 Percent_Internet     GDP
##    <chr>  <int>  <dbl>         <dbl>          <dbl>            <dbl>   <dbl>
##  1 World   1990 5.28e9       2630452          0.211           0.0493 2.26e13
##  2 World   1991 5.37e9            NA          0.302          NA      2.39e13
##  3 World   1992 5.46e9            NA          0.427          NA      2.54e13
##  4 World   1993 5.54e9      14073444          0.618           0.252  2.59e13
##  5 World   1994 5.62e9      25348069          0.989           0.447  2.78e13
##  6 World   1995 5.71e9      44714405          1.58            0.777  3.09e13
##  7 World   1996 5.79e9      77323781          2.50            1.33   3.16e13
##  8 World   1997 5.88e9     120719713          3.65            2.04   3.14e13
##  9 World   1998 5.96e9     188144724          5.33            3.14   3.13e13
## 10 World   1999 6.04e9     281428387          8.12            4.64   3.25e13
## # ... with 71 more rows, and 3 more variables: mobile_pop <dbl>,
## #   GDP_Capita <dbl>, ALO <dbl>
…
Starting with the French in a slight advantage, over the years the scene changes and Germany is on top, but still marginally. Both these countries are quite similar in terms of their education standards, economic output, and internet access. While Germany is better by a hair, both are star examples of a developed, modern country.

South Korea and Myanmar

Moving onto South Korea and Myanmar, both these countries are located in Asia and have similar populations throughout the timeframe . By comparing their internet access, economies and education, we can start to see the association between population and prosperity.

Making the Dataframe(s)

We import South Korea data into an independent dataframe

SK_data <- left_join(pop_raw %>% filter(Country.Code == "KOR"),net_users_raw %>% filter(Code == "KOR"),by = "Year") %>% left_join(mobile_use_raw %>% filter(Code == "KOR"), by = "Year") %>% left_join(net_per_raw %>% filter(Code == "KOR")) %>% left_join(GDP) %>% filter(Country.Code == "KOR")%>% left_join(ALO_tbl) %>% filter(Code == "KOR") %>%  select(Entity,Year,pop,Num_Net_Users,Mobile_Per_100,Percent_Internet,GDP,ALO) %>% mutate(mobile_pop = (Mobile_Per_100*.01)*pop)
SK_data

## # A tibble: 27 x 9
##    Entity  Year    pop Num_Net_Users Mobile_Per_100 Percent_Internet     GDP
##    <chr>  <int>  <dbl>         <dbl>          <dbl>            <dbl>   <dbl>
##  1 South~  1990 4.29e7          9986          0.186           0.0233 2.79e11
##  2 South~  1991 4.33e7         20008          0.383           0.0461 3.26e11
##  3 South~  1992 4.37e7         43154          0.620           0.0984 3.50e11
##  4 South~  1993 4.42e7        110828          1.06            0.250  3.86e11
##  5 South~  1994 4.46e7        139570          2.14            0.311  4.56e11
##  6 South~  1995 4.51e7        371307          3.62            0.820  5.56e11
##  7 South~  1996 4.55e7        743208          6.95            1.62   5.98e11
##  8 South~  1997 4.60e7       1663664         14.9             3.60   5.58e11
##  9 South~  1998 4.63e7       3162187         30.1             6.78   3.74e11
## 10 South~  1999 4.66e7      11075156         49.9            23.6    4.85e11
## # ... with 17 more rows, and 2 more variables: ALO <dbl>, mobile_pop <dbl>
…
We combine the world, Korea and Myanmar data into WKM_data

WKM_data <- bind_rows(wld_data ,SK_data,MM_data) %>% 
  filter(Year >= 2001)%>% mutate(GDP_Capita = GDP/pop)
WKM_data

## # A tibble: 48 x 10
##    Entity  Year    pop Num_Net_Users Mobile_Per_100 Percent_Internet     GDP
##    <chr>  <int>  <dbl>         <dbl>          <dbl>            <dbl>   <dbl>
##  1 World   2001 6.20e9     502668939           15.5             8.08 3.34e13
##  2 World   2002 6.28e9     664809555           18.5            10.5  3.46e13
##  3 World   2003 6.36e9     780750279           22.2            12.2  3.89e13
##  4 World   2004 6.44e9     912821319           27.3            14.1  4.38e13
##  5 World   2005 6.52e9    1029023007           33.8            15.7  4.74e13
##  6 World   2006 6.60e9    1158678340           41.6            17.5  5.14e13
##  7 World   2007 6.68e9    1369818178           50.3            20.4  5.79e13
##  8 World   2008 6.76e9    1558290574           59.5            23.0  6.35e13
##  9 World   2009 6.85e9    1742929484           67.6            25.4  6.02e13
## 10 World   2010 6.93e9    1999332784           76.1            28.7  6.60e13
## # ... with 38 more rows, and 3 more variables: mobile_pop <dbl>,
## #   GDP_Capita <dbl>, ALO <dbl>
…
Canada and Thailand

Finally, Two countries with a similar number of wired internet users by 2016. Lets assess Canada and Thailand, two extremely different countries, in terms of their cultures and histories.

Making the Dataframe(s)

We load in each country into their own dataframes and combine them into WCT_data

CA_data <- left_join(pop_raw %>% filter(Country.Code == "CAN"),net_users_raw %>% filter(Code == "CAN"),by = "Year") %>% left_join(mobile_use_raw %>% filter(Code == "CAN"), by = "Year") %>% left_join(net_per_raw %>% filter(Code == "CAN")) %>% left_join(GDP) %>% filter(Country.Code == "CAN")%>% left_join(ALO_tbl) %>% filter(Code == "CAN") %>% select(Entity,Year,pop,Num_Net_Users,Mobile_Per_100,Percent_Internet,GDP,ALO) %>% mutate(mobile_pop = (Mobile_Per_100*.01)*pop) 
CA_data

## # A tibble: 27 x 9
##    Entity  Year    pop Num_Net_Users Mobile_Per_100 Percent_Internet     GDP
##    <chr>  <int>  <dbl>         <dbl>          <dbl>            <dbl>   <dbl>
##  1 Canada  1990 2.78e7         99970           2.11            0.361 5.94e11
##  2 Canada  1991 2.82e7        159962           2.77            0.570 6.10e11
##  3 Canada  1992 2.85e7        259995           3.62            0.916 5.92e11
##  4 Canada  1993 2.88e7        340102           4.64            1.18  5.77e11
##  5 Canada  1994 2.91e7        690444           6.43            2.38  5.78e11
##  6 Canada  1995 2.94e7       1221165           8.83            4.16  6.04e11
##  7 Canada  1996 2.97e7       2002527          11.8             6.76  6.29e11
##  8 Canada  1997 3.00e7       4507110          14.0            15.1   6.53e11
##  9 Canada  1998 3.02e7       7513571          17.7            24.9   6.32e11
## 10 Canada  1999 3.05e7      11020176          22.7            36.2   6.76e11
## # ... with 17 more rows, and 2 more variables: ALO <dbl>, mobile_pop <dbl>

TL_data <- left_join(pop_raw %>% filter(Country.Code == "THA"),net_users_raw %>% filter(Code == "THA"),by = "Year") %>% left_join(mobile_use_raw %>% filter(Code == "THA"), by = "Year") %>% left_join(net_per_raw %>% filter(Code == "THA")) %>% left_join(GDP) %>% filter(Country.Code == "THA") %>% left_join(ALO_tbl) %>% filter(Code == "THA")%>% select(Entity = Country.Name,Year,pop,Num_Net_Users,Mobile_Per_100,Percent_Internet,GDP,ALO) %>% mutate(mobile_pop = (Mobile_Per_100*.01)*pop) 
TL_data

## # A tibble: 27 x 9
##    Entity  Year    pop Num_Net_Users Mobile_Per_100 Percent_Internet     GDP
##    <chr>  <int>  <dbl>         <dbl>          <dbl>            <dbl>   <dbl>
##  1 Thail~  1990 5.66e7             0          0.112        0         8.53e10
##  2 Thail~  1991 5.73e7            30          0.216        0.0000522 9.82e10
##  3 Thail~  1992 5.78e7           199          0.433        0.000344  1.11e11
##  4 Thail~  1993 5.84e7          7927          0.709        0.0136    1.29e11
##  5 Thail~  1994 5.89e7         22744          1.25         0.0386    1.47e11
##  6 Thail~  1995 5.95e7         44515          2.18         0.0748    1.69e11
##  7 Thail~  1996 6.02e7         69458          3.07         0.115     1.83e11
##  8 Thail~  1997 6.09e7        219426          3.62         0.361     1.50e11
##  9 Thail~  1998 6.16e7        672161          3.21         1.09      1.14e11
## 10 Thail~  1999 6.23e7       1511710          3.75         2.43      1.27e11
## # ... with 17 more rows, and 2 more variables: ALO <dbl>, mobile_pop <dbl>

WCT_data <- bind_rows(wld_data,CA_data,TL_data) %>% mutate(GDP_Capita = GDP/pop)
WCT_data

## # A tibble: 81 x 10
##    Entity  Year    pop Num_Net_Users Mobile_Per_100 Percent_Internet     GDP
##    <chr>  <int>  <dbl>         <dbl>          <dbl>            <dbl>   <dbl>
##  1 World   1990 5.28e9       2630452          0.211           0.0493 2.26e13
##  2 World   1991 5.37e9            NA          0.302          NA      2.39e13
##  3 World   1992 5.46e9            NA          0.427          NA      2.54e13
##  4 World   1993 5.54e9      14073444          0.618           0.252  2.59e13
##  5 World   1994 5.62e9      25348069          0.989           0.447  2.78e13
##  6 World   1995 5.71e9      44714405          1.58            0.777  3.09e13
##  7 World   1996 5.79e9      77323781          2.50            1.33   3.16e13
##  8 World   1997 5.88e9     120719713          3.65            2.04   3.14e13
##  9 World   1998 5.96e9     188144724          5.33            3.14   3.13e13
## 10 World   1999 6.04e9     281428387          8.12            4.64   3.25e13
## # ... with 71 more rows, and 3 more variables: mobile_pop <dbl>,
## #   GDP_Capita <dbl>, ALO <dbl>
…
