Final Project Rough Draft
…
Provide a summary for variables of interest

Tech Data

Internet users/availability

net_users_raw <- as.tibble(read.csv(file = "Data/number-of-internet-users-by-country.csv")) %>% rename(Num_Net_Users = Number.of.internet.users..users.)

## Warning: `as.tibble()` is deprecated, use `as_tibble()` (but mind the new semantics).
## This warning is displayed once per session.

net_users_wld <- net_users_raw %>% filter(Entity == "World") %>% select(Entity,Year,Num_Net_Users) %>% arrange(Year)
net_users_wld

## # A tibble: 25 x 3
##    Entity  Year Num_Net_Users
##    <fct>  <int>         <dbl>
##  1 World   1990       2630452
##  2 World   1993      14073444
##  3 World   1994      25348069
##  4 World   1995      44714405
##  5 World   1996      77323781
##  6 World   1997     120719713
##  7 World   1998     188144724
##  8 World   1999     281428387
##  9 World   2000     414371966
## 10 World   2001     502668939
## # ... with 15 more rows

net_users_raw %>% filter(Entity == "South Korea")

## # A tibble: 28 x 4
##    Entity      Code   Year Num_Net_Users
##    <fct>       <fct> <int>         <dbl>
##  1 South Korea KOR    1990          9986
##  2 South Korea KOR    1991         20008
##  3 South Korea KOR    1992         43154
##  4 South Korea KOR    1993        110828
##  5 South Korea KOR    1994        139570
##  6 South Korea KOR    1995        371307
##  7 South Korea KOR    1996        743208
##  8 South Korea KOR    1997       1663664
##  9 South Korea KOR    1998       3162187
## 10 South Korea KOR    1999      11075156
## # ... with 18 more rows

Smartphone users

mobile_use_raw <- as.tibble(read.csv(file = "Data/mobile-cellular-subscriptions-per-100-people.csv")) %>% rename(Mobile_Per_100 = Mobile.cellular.subscriptions..per.100.people...per.100.people.) %>% filter(Year > 1989)
mobile_use_wld <- mobile_use_raw %>% filter(Entity == "World") %>% select(Entity, Year, Mobile_Per_100 ) %>% arrange(Year)
mobile_use_raw %>% filter(Entity == "Russia")

## # A tibble: 28 x 4
##    Entity Code   Year Mobile_Per_100
##    <fct>  <fct> <int>          <dbl>
##  1 Russia RUS    1990       0       
##  2 Russia RUS    1991       0.000203
##  3 Russia RUS    1992       0.00405 
##  4 Russia RUS    1993       0.00674 
##  5 Russia RUS    1994       0.0187  
##  6 Russia RUS    1995       0.0597  
##  7 Russia RUS    1996       0.151   
##  8 Russia RUS    1997       0.328   
##  9 Russia RUS    1998       0.507   
## 10 Russia RUS    1999       0.933   
## # ... with 18 more rows
…
% of pop internet usage

net_per_raw <- as.tibble(read.csv(file = "Data/share-of-individuals-using-the-internet.csv")) %>% rename(Percent_Internet =Individuals.using.the.Internet....of.population.....of.population.)
net_per_wld <- net_per_raw %>% filter(Entity == "World") %>% select(Entity,Year,Percent_Internet) %>% arrange(Year)
net_per_raw %>% filter(Entity == "Russia")

## # A tibble: 27 x 4
##    Entity Code   Year Percent_Internet
##    <fct>  <fct> <int>            <dbl>
##  1 Russia RUS    1990         0       
##  2 Russia RUS    1992         0.000673
##  3 Russia RUS    1993         0.0134  
##  4 Russia RUS    1994         0.0538  
##  5 Russia RUS    1995         0.148   
##  6 Russia RUS    1996         0.270   
##  7 Russia RUS    1997         0.473   
##  8 Russia RUS    1998         0.813   
##  9 Russia RUS    1999         1.02    
## 10 Russia RUS    2000         1.98    
## # ... with 17 more rows

Users by Social Media Platform

sm_user_raw <- as.tibble(read.csv(file = "Data/users-by-social-media-platform.csv"))
sm_user <- sm_user_raw %>% rename(Monthly_Users = Monthly.active.users..Statista.and.TNW..2019....MAU.) %>% filter(Entity == "Facebook"| Entity == "Instagram"|Entity == "Reddit"|Entity == "YouTube")
sm_user

## # A tibble: 41 x 4
##    Entity   Code   Year Monthly_Users
##    <fct>    <lgl> <int>         <dbl>
##  1 Facebook NA     2008     100000000
##  2 Facebook NA     2009     276000000
##  3 Facebook NA     2010     517750000
##  4 Facebook NA     2011     766000000
##  5 Facebook NA     2012     979750000
##  6 Facebook NA     2013    1170500000
##  7 Facebook NA     2014    1334000000
##  8 Facebook NA     2015    1516750000
##  9 Facebook NA     2016    1753500000
## 10 Facebook NA     2017    2035750000
## # ... with 31 more rows

Population Data

pop_raw <- as.tibble(read.csv(file = "Data/population.csv")) %>% rename(pop = Value) %>% filter(Year > 1989)
wld_pop <- pop_raw %>% filter(Country.Name == "World")
#wld_pop
pop_raw 

## # A tibble: 7,085 x 4
##    Country.Name Country.Code  Year       pop
##    <fct>        <fct>        <int>     <dbl>
##  1 Arab World   ARB           1990 224735446
##  2 Arab World   ARB           1991 230829868
##  3 Arab World   ARB           1992 235037179
##  4 Arab World   ARB           1993 241286091
##  5 Arab World   ARB           1994 247435930
##  6 Arab World   ARB           1995 255029671
##  7 Arab World   ARB           1996 260843462
##  8 Arab World   ARB           1997 266575075
##  9 Arab World   ARB           1998 272235146
## 10 Arab World   ARB           1999 277962869
## # ... with 7,075 more rows
…
## Warning: Column `Country.Code` joining factors with different levels, coercing
## to character vector

## Joining, by = c("Year", "Entity", "Code")

## Warning: Column `Entity` joining factors with different levels, coercing to
## character vector

## Warning: Column `Code` joining factors with different levels, coercing to
## character vector

FR_data

## # A tibble: 27 x 9
##    Entity  Year    pop Num_Net_Users Mobile_Per_100 Percent_Internet     GDP
##    <chr>  <int>  <dbl>         <dbl>          <dbl>            <dbl>   <dbl>
##  1 France  1990 5.85e7         30063          0.497           0.0528 1.28e12
##  2 France  1991 5.86e7         80198          0.655           0.140  1.28e12
##  3 France  1992 5.89e7        160445          0.760           0.279  1.41e12
##  4 France  1993 5.91e7        341052          0.991           0.591  1.33e12
##  5 France  1994 5.93e7        521839          1.52            0.900  1.40e12
##  6 France  1995 5.95e7        953970          2.24            1.64   1.61e12
##  7 France  1996 5.98e7       1511652          4.21            2.58   1.61e12
##  8 France  1997 6.00e7       2500385          9.90            4.26   1.46e12
##  9 France  1998 6.02e7       3730876         19.0             6.32   1.51e12
## 10 France  1999 6.05e7       5412783         36.1             9.13   1.50e12
## # ... with 17 more rows, and 2 more variables: ALO <dbl>, mobile_pop <dbl>
…
## Warning: Column `Country.Code` joining factors with different levels, coercing
## to character vector

## Joining, by = c("Year", "Entity", "Code")

## Warning: Column `Entity` joining factors with different levels, coercing to
## character vector

## Warning: Column `Code` joining factors with different levels, coercing to
## character vector

DE_data

## # A tibble: 27 x 9
##    Entity  Year    pop Num_Net_Users Mobile_Per_100 Percent_Internet     GDP
##    <chr>  <int>  <dbl>         <dbl>          <dbl>            <dbl>   <dbl>
##  1 Germa~  1990 7.94e7         99604          0.345            0.126 1.76e12
##  2 Germa~  1991 8.00e7        199129          0.669            0.250 1.86e12
##  3 Germa~  1992 8.06e7        348429          1.21             0.435 2.12e12
##  4 Germa~  1993 8.12e7        373319          2.20             0.464 2.07e12
##  5 Germa~  1994 8.14e7        746622          3.08             0.923 2.21e12
##  6 Germa~  1995 8.17e7       1492989          4.59             1.84  2.59e12
##  7 Germa~  1996 8.19e7       2487416          6.77             3.05  2.50e12
##  8 Germa~  1997 8.20e7       5469527         10.2              6.71  2.22e12
##  9 Germa~  1998 8.20e7       8050374         17.1              9.88  2.24e12
## 10 Germa~  1999 8.21e7      16985643         28.8             20.8   2.20e12
## # ... with 17 more rows, and 2 more variables: ALO <dbl>, mobile_pop <dbl>

WFD_data <- bind_rows(wld_data,FR_data,DE_data) %>% mutate(GDP_Capita = GDP/pop)

## Warning in bind_rows_(x, .id): binding factor and character vector, coercing
## into character vector

## Warning in bind_rows_(x, .id): binding character and factor vector, coercing
## into character vector

WFD_data

## # A tibble: 81 x 10
##    Entity  Year    pop Num_Net_Users Mobile_Per_100 Percent_Internet     GDP
##    <chr>  <int>  <dbl>         <dbl>          <dbl>            <dbl>   <dbl>
##  1 World   1990 5.28e9       2630452          0.211           0.0493 2.26e13
##  2 World   1991 5.37e9            NA          0.302          NA      2.39e13
##  3 World   1992 5.46e9            NA          0.427          NA      2.54e13
##  4 World   1993 5.54e9      14073444          0.618           0.252  2.59e13
##  5 World   1994 5.62e9      25348069          0.989           0.447  2.78e13
##  6 World   1995 5.71e9      44714405          1.58            0.777  3.09e13
##  7 World   1996 5.79e9      77323781          2.50            1.33   3.16e13
##  8 World   1997 5.88e9     120719713          3.65            2.04   3.14e13
##  9 World   1998 5.96e9     188144724          5.33            3.14   3.13e13
## 10 World   1999 6.04e9     281428387          8.12            4.64   3.25e13
## # ... with 71 more rows, and 3 more variables: mobile_pop <dbl>,
## #   GDP_Capita <dbl>, ALO <dbl>
…
## Warning: Column `Country.Code` joining factors with different levels, coercing
## to character vector

## Joining, by = c("Year", "Entity", "Code")

## Warning: Column `Entity` joining factors with different levels, coercing to
## character vector

## Warning: Column `Code` joining factors with different levels, coercing to
## character vector

SK_data

## # A tibble: 27 x 9
##    Entity  Year    pop Num_Net_Users Mobile_Per_100 Percent_Internet     GDP
##    <chr>  <int>  <dbl>         <dbl>          <dbl>            <dbl>   <dbl>
##  1 South~  1990 4.29e7          9986          0.186           0.0233 2.79e11
##  2 South~  1991 4.33e7         20008          0.383           0.0461 3.26e11
##  3 South~  1992 4.37e7         43154          0.620           0.0984 3.50e11
##  4 South~  1993 4.42e7        110828          1.06            0.250  3.86e11
##  5 South~  1994 4.46e7        139570          2.14            0.311  4.56e11
##  6 South~  1995 4.51e7        371307          3.62            0.820  5.56e11
##  7 South~  1996 4.55e7        743208          6.95            1.62   5.98e11
##  8 South~  1997 4.60e7       1663664         14.9             3.60   5.58e11
##  9 South~  1998 4.63e7       3162187         30.1             6.78   3.74e11
## 10 South~  1999 4.66e7      11075156         49.9            23.6    4.85e11
## # ... with 17 more rows, and 2 more variables: ALO <dbl>, mobile_pop <dbl>
…
We combine the world, Korea and Myanmar data into WKM_data

WKM_data <- bind_rows(wld_data,SK_data,MM_data) %>% mutate(GDP_Capita = GDP/pop)

## Warning in bind_rows_(x, .id): binding factor and character vector, coercing
## into character vector

## Warning in bind_rows_(x, .id): binding character and factor vector, coercing
## into character vector

WKM_data

## # A tibble: 71 x 10
##    Entity  Year    pop Num_Net_Users Mobile_Per_100 Percent_Internet     GDP
##    <chr>  <int>  <dbl>         <dbl>          <dbl>            <dbl>   <dbl>
##  1 World   1990 5.28e9       2630452          0.211           0.0493 2.26e13
##  2 World   1991 5.37e9            NA          0.302          NA      2.39e13
##  3 World   1992 5.46e9            NA          0.427          NA      2.54e13
##  4 World   1993 5.54e9      14073444          0.618           0.252  2.59e13
##  5 World   1994 5.62e9      25348069          0.989           0.447  2.78e13
##  6 World   1995 5.71e9      44714405          1.58            0.777  3.09e13
##  7 World   1996 5.79e9      77323781          2.50            1.33   3.16e13
##  8 World   1997 5.88e9     120719713          3.65            2.04   3.14e13
##  9 World   1998 5.96e9     188144724          5.33            3.14   3.13e13
## 10 World   1999 6.04e9     281428387          8.12            4.64   3.25e13
## # ... with 61 more rows, and 3 more variables: mobile_pop <dbl>,
## #   GDP_Capita <dbl>, ALO <dbl>
…
## Warning: Column `Country.Code` joining factors with different levels, coercing
## to character vector

## Joining, by = c("Year", "Entity", "Code")

## Warning: Column `Entity` joining factors with different levels, coercing to
## character vector

## Warning: Column `Code` joining factors with different levels, coercing to
## character vector

CA_data

## # A tibble: 27 x 9
##    Entity  Year    pop Num_Net_Users Mobile_Per_100 Percent_Internet     GDP
##    <chr>  <int>  <dbl>         <dbl>          <dbl>            <dbl>   <dbl>
##  1 Canada  1990 2.78e7         99970           2.11            0.361 5.94e11
##  2 Canada  1991 2.82e7        159962           2.77            0.570 6.10e11
##  3 Canada  1992 2.85e7        259995           3.62            0.916 5.92e11
##  4 Canada  1993 2.88e7        340102           4.64            1.18  5.77e11
##  5 Canada  1994 2.91e7        690444           6.43            2.38  5.78e11
##  6 Canada  1995 2.94e7       1221165           8.83            4.16  6.04e11
##  7 Canada  1996 2.97e7       2002527          11.8             6.76  6.29e11
##  8 Canada  1997 3.00e7       4507110          14.0            15.1   6.53e11
##  9 Canada  1998 3.02e7       7513571          17.7            24.9   6.32e11
## 10 Canada  1999 3.05e7      11020176          22.7            36.2   6.76e11
## # ... with 17 more rows, and 2 more variables: ALO <dbl>, mobile_pop <dbl>
…
## Warning: Column `Country.Code` joining factors with different levels, coercing
## to character vector

## Joining, by = c("Year", "Entity", "Code")

## Warning: Column `Entity` joining factors with different levels, coercing to
## character vector

## Warning: Column `Code` joining factors with different levels, coercing to
## character vector

TL_data

## # A tibble: 27 x 9
##    Entity  Year    pop Num_Net_Users Mobile_Per_100 Percent_Internet     GDP
##    <chr>  <int>  <dbl>         <dbl>          <dbl>            <dbl>   <dbl>
##  1 Thail~  1990 5.66e7             0          0.112        0         8.53e10
##  2 Thail~  1991 5.73e7            30          0.216        0.0000522 9.82e10
##  3 Thail~  1992 5.78e7           199          0.433        0.000344  1.11e11
##  4 Thail~  1993 5.84e7          7927          0.709        0.0136    1.29e11
##  5 Thail~  1994 5.89e7         22744          1.25         0.0386    1.47e11
##  6 Thail~  1995 5.95e7         44515          2.18         0.0748    1.69e11
##  7 Thail~  1996 6.02e7         69458          3.07         0.115     1.83e11
##  8 Thail~  1997 6.09e7        219426          3.62         0.361     1.50e11
##  9 Thail~  1998 6.16e7        672161          3.21         1.09      1.14e11
## 10 Thail~  1999 6.23e7       1511710          3.75         2.43      1.27e11
## # ... with 17 more rows, and 2 more variables: ALO <dbl>, mobile_pop <dbl>

WCT_data <- bind_rows(wld_data,CA_data,TL_data) %>% mutate(GDP_Capita = GDP/pop)

## Warning in bind_rows_(x, .id): binding factor and character vector, coercing
## into character vector

## Warning in bind_rows_(x, .id): binding character and factor vector, coercing
## into character vector

WCT_data

## # A tibble: 81 x 10
##    Entity  Year    pop Num_Net_Users Mobile_Per_100 Percent_Internet     GDP
##    <chr>  <int>  <dbl>         <dbl>          <dbl>            <dbl>   <dbl>
##  1 World   1990 5.28e9       2630452          0.211           0.0493 2.26e13
##  2 World   1991 5.37e9            NA          0.302          NA      2.39e13
##  3 World   1992 5.46e9            NA          0.427          NA      2.54e13
##  4 World   1993 5.54e9      14073444          0.618           0.252  2.59e13
##  5 World   1994 5.62e9      25348069          0.989           0.447  2.78e13
##  6 World   1995 5.71e9      44714405          1.58            0.777  3.09e13
##  7 World   1996 5.79e9      77323781          2.50            1.33   3.16e13
##  8 World   1997 5.88e9     120719713          3.65            2.04   3.14e13
##  9 World   1998 5.96e9     188144724          5.33            3.14   3.13e13
## 10 World   1999 6.04e9     281428387          8.12            4.64   3.25e13
## # ... with 71 more rows, and 3 more variables: mobile_pop <dbl>,
## #   GDP_Capita <dbl>, ALO <dbl>
…
